[gd_scene load_steps=17 format=2]

[ext_resource path="res://assets/stars/starsky.png" type="Texture" id=1]
[ext_resource path="res://scenes/player/player.tscn" type="PackedScene" id=2]
[ext_resource path="res://scenes/hud/hud.tscn" type="PackedScene" id=3]
[ext_resource path="res://scenes/tiles/tileset.tres" type="TileSet" id=4]
[ext_resource path="res://scenes/door/door.tscn" type="PackedScene" id=5]
[ext_resource path="res://scenes/ecurrent/ecurrent.tscn" type="PackedScene" id=6]
[ext_resource path="res://scenes/fuelpickup/fuelpickup.tscn" type="PackedScene" id=7]
[ext_resource path="res://scenes/boostarea/boostarea.tscn" type="PackedScene" id=8]
[ext_resource path="res://scenes/turret/turret.gd" type="Script" id=9]
[ext_resource path="res://scenes/Pause.gd" type="Script" id=10]
[ext_resource path="res://assets/turret/turret_gun.png" type="Texture" id=11]
[ext_resource path="res://assets/turret/turret_body.png" type="Texture" id=12]
[ext_resource path="res://assets/fonts/m3x6_double_font_size.tres" type="DynamicFont" id=13]
[ext_resource path="res://scenes/deleteme.gd" type="Script" id=14]

[sub_resource type="RectangleShape2D" id=1]
extents = Vector2( 3.45413, 6.81147 )

[sub_resource type="RectangleShape2D" id=2]

[node name="Root" type="Node2D"]
pause_mode = 1
scale = Vector2( 2, 2 )

[node name="HUD" parent="." instance=ExtResource( 3 )]

[node name="Player" parent="." instance=ExtResource( 2 )]
position = Vector2( -63.88, 34.6891 )
z_index = 1
TURN_SPEED = 3.0
max_fuel = 300.0

[node name="Level" type="Node2D" parent="."]
script = ExtResource( 14 )

[node name="Tiles" type="TileMap" parent="Level"]
position = Vector2( -0.249313, -0.0557899 )
tile_set = ExtResource( 4 )
cell_size = Vector2( 16, 16 )
format = 1
tile_data = PoolIntArray( -2359278, -1610612713, 0, -2359277, 1610612761, 0, -2359276, 1610612761, 0, -2359275, 1610612761, 0, -2359274, 1610612761, 0, -2359273, 1610612761, 0, -2359272, 1610612761, 0, -2359271, 1610612761, 0, -2359270, 1610612761, 0, -2359269, 1610612761, 0, -2359268, 1610612761, 0, -2359267, 1610612761, 0, -2359266, 1610612761, 0, -2359265, 1610612761, 0, -2359264, 1610612761, 0, -2359263, 1610612761, 0, -2359262, 1610612761, 0, -2359261, 1610612761, 0, -2359260, 1610612761, 0, -2359259, 1610612761, 0, -2359258, 1610612761, 0, -2359257, 1610612761, 0, -2359256, 1610612761, 0, -2359255, 1610612761, 0, -2359254, 1610612761, 0, -2359253, 1610612761, 0, -2359252, 1610612759, 0, -2293742, -1610612711, 0, -2293741, -1073741823, 0, -2293740, -1073741823, 0, -2293739, -1073741823, 0, -2293738, -1073741823, 0, -2293737, -1073741823, 0, -2293736, -1073741823, 0, -2293735, -1073741823, 0, -2293734, -1073741823, 0, -2293733, -1073741823, 0, -2293732, -1073741823, 0, -2293731, -1073741823, 0, -2293730, -1073741823, 0, -2293729, -1073741823, 0, -2293728, -1073741823, 0, -2293727, -1073741823, 0, -2293726, -1073741823, 0, -2293725, -1073741823, 0, -2293724, -1073741823, 0, -2293723, -1073741823, 0, -2293722, -1073741823, 0, -2293721, -1073741823, 0, -2293720, -1073741823, 0, -2293719, -1073741823, 0, -2293718, -1073741823, 0, -2293717, -1073741823, 0, -2293716, -1073741799, 0, -2228206, -1610612711, 0, -2228205, -1073741823, 0, -2228204, -1073741823, 0, -2228203, -1073741823, 0, -2228202, -1073741823, 0, -2228201, -1073741823, 0, -2228200, -1073741823, 0, -2228199, -1073741823, 0, -2228198, -1073741823, 0, -2228197, -1073741823, 0, -2228196, -1073741823, 0, -2228195, -1073741823, 0, -2228194, -1073741823, 0, -2228193, -1073741823, 0, -2228192, -1073741823, 0, -2228191, -1073741823, 0, -2228190, -1073741823, 0, -2228189, -1073741823, 0, -2228188, -1073741823, 0, -2228187, -1073741823, 0, -2228186, -1073741823, 0, -2228185, -1073741823, 0, -2228184, -1073741823, 0, -2228183, -1073741823, 0, -2228182, -1073741823, 0, -2228181, -1073741823, 0, -2228180, -1073741799, 0, -2162670, -1610612711, 0, -2162669, -1073741823, 0, -2162668, -1073741823, 0, -2162667, -1073741823, 0, -2162666, -1073741823, 0, -2162665, -1073741823, 0, -2162664, -1073741823, 0, -2162663, -1073741823, 0, -2162662, -1073741823, 0, -2162661, -1073741823, 0, -2162660, -1073741823, 0, -2162659, -1073741823, 0, -2162658, -1073741823, 0, -2162657, -1073741823, 0, -2162656, -1073741823, 0, -2162655, -1073741823, 0, -2162654, -1073741823, 0, -2162653, -1073741823, 0, -2162652, -1073741823, 0, -2162651, -1073741823, 0, -2162650, -1073741823, 0, -2162649, -1073741823, 0, -2162648, -1073741823, 0, -2162647, -1073741823, 0, -2162646, -1073741823, 0, -2162645, -1073741823, 0, -2162644, -1073741799, 0, -2097134, -1610612711, 0, -2097133, -1073741823, 0, -2097132, -1073741823, 0, -2097131, -1073741823, 0, -2097130, -1073741823, 0, -2097129, -1073741823, 0, -2097128, -1073741823, 0, -2097127, -1073741823, 0, -2097126, -1073741823, 0, -2097125, -1073741823, 0, -2097124, -1073741823, 0, -2097123, -1073741823, 0, -2097122, -1073741823, 0, -2097121, -1073741823, 0, -2097120, -1073741823, 0, -2097119, -1073741823, 0, -2097118, -1073741823, 0, -2097117, -1073741823, 0, -2097116, -1073741823, 0, -2097115, -1073741823, 0, -2097114, -1073741823, 0, -2097113, -1073741823, 0, -2097112, -1073741823, 0, -2097111, -1073741823, 0, -2097110, -1073741823, 0, -2097109, -1073741823, 0, -2097108, -1073741799, 0, -2031598, -1610612711, 0, -2031597, -1073741823, 0, -2031596, -1073741823, 0, -2031595, -1073741823, 0, -2031594, -1073741823, 0, -2031593, -1073741823, 0, -2031592, -1073741823, 0, -2031591, -1073741823, 0, -2031590, -1073741823, 0, -2031589, -1073741823, 0, -2031588, -1073741823, 0, -2031587, -1073741823, 0, -2031586, -1073741823, 0, -2031585, -1073741823, 0, -2031584, -1073741823, 0, -2031583, -1073741823, 0, -2031582, -1073741823, 0, -2031581, -1073741823, 0, -2031580, -1073741823, 0, -2031579, -1073741823, 0, -2031578, -1073741823, 0, -2031577, -1073741823, 0, -2031576, -1073741823, 0, -2031575, -1073741823, 0, -2031574, -1073741823, 0, -2031573, -1073741823, 0, -2031572, -1073741799, 0, -1966062, -1610612711, 0, -1966061, -1073741823, 0, -1966060, -1073741823, 0, -1966059, -1073741823, 0, -1966058, -1073741823, 0, -1966057, -1073741823, 0, -1966056, -1073741823, 0, -1966055, -1073741823, 0, -1966054, -1073741823, 0, -1966053, -1073741823, 0, -1966052, -1073741823, 0, -1966051, -1073741823, 0, -1966050, -1073741823, 0, -1966049, -1073741823, 0, -1966048, -1073741823, 0, -1966047, -1073741823, 0, -1966046, -1073741823, 0, -1966045, -1073741823, 0, -1966044, -1073741823, 0, -1966043, -1073741823, 0, -1966042, -1073741823, 0, -1966041, -1073741823, 0, -1966040, -1073741823, 0, -1966039, -1073741823, 0, -1966038, -1073741823, 0, -1966037, -1073741823, 0, -1966036, -1073741799, 0, -1966032, -1610612713, 0, -1966031, 1610612761, 0, -1966030, 1610612761, 0, -1966029, 1610612761, 0, -1966028, 1610612761, 0, -1966027, 1610612761, 0, -1966026, 1610612761, 0, -1966025, 1610612761, 0, -1966024, 1610612761, 0, -1966023, 1610612761, 0, -1900526, -1610612711, 0, -1900525, -1073741823, 0, -1900524, -1073741823, 0, -1900523, -1073741823, 0, -1900522, -1073741823, 0, -1900521, -1073741823, 0, -1900520, -1073741823, 0, -1900519, -1073741823, 0, -1900518, -1073741823, 0, -1900517, 21, 0, -1900516, 25, 0, -1900515, -1610612715, 0, -1900514, -1073741823, 0, -1900513, -1073741823, 0, -1900512, -1073741823, 0, -1900511, -1073741823, 0, -1900510, -1073741823, 0, -1900509, -1073741823, 0, -1900508, -1073741823, 0, -1900507, 1, 0, -1900506, 1, 0, -1900505, 1, 0, -1900504, 1, 0, -1900503, 1, 0, -1900502, 1, 0, -1900501, 1, 0, -1900500, -1073741799, 0, -1900496, -1610612711, 0, -1900495, 1, 0, -1900494, 1, 0, -1900493, 1, 0, -1900492, 1, 0, -1900491, 1, 0, -1900490, 1, 0, -1900489, 1, 0, -1900488, 1, 0, -1900487, 1, 0, -1834990, -1610612711, 0, -1834989, -1073741823, 0, -1834988, -1073741823, 0, -1834987, -1073741823, 0, -1834986, -1073741823, 0, -1834985, -1073741823, 0, -1834984, -1073741823, 0, -1834983, 21, 0, -1834982, 25, 0, -1834981, -1073741801, 0, -1834979, 23, 0, -1834978, 25, 0, -1834977, -1610612715, 0, -1834976, -1073741823, 0, -1834975, -1073741823, 0, -1834974, -1073741823, 0, -1834973, -1073741823, 0, -1834972, -1073741823, 0, -1834971, 1, 0, -1834970, 1, 0, -1834969, 1, 0, -1834968, 1, 0, -1834967, 1, 0, -1834966, 1, 0, -1834965, 1, 0, -1834964, -1073741799, 0, -1834960, -1610612711, 0, -1834959, 1, 0, -1834958, 1, 0, -1834957, 1, 0, -1834956, 1, 0, -1834955, 1, 0, -1834954, 1, 0, -1834953, 1, 0, -1834952, 1, 0, -1834951, 1, 0, -1769454, -1610612711, 0, -1769453, -1073741823, 0, -1769452, -1073741823, 0, -1769451, -1073741823, 0, -1769450, -1073741823, 0, -1769449, -1073741823, 0, -1769448, 21, 0, -1769447, -1073741801, 0, -1769441, 23, 0, -1769440, -1610612715, 0, -1769439, -1073741823, 0, -1769438, 1, 0, -1769437, 1, 0, -1769436, 1, 0, -1769435, 1, 0, -1769434, 1, 0, -1769433, 1, 0, -1769432, 1, 0, -1769431, 1, 0, -1769430, 1, 0, -1769429, 1, 0, -1769428, -1073741799, 0, -1769424, -1610612711, 0, -1769423, 1, 0, -1769422, 1, 0, -1769421, 1, 0, -1769420, 1, 0, -1769419, 1, 0, -1769418, 1, 0, -1769417, 1, 0, -1769416, 1, 0, -1769415, 1, 0, -1703918, -1610612711, 0, -1703917, -1073741823, 0, -1703916, -1073741823, 0, -1703915, -1073741823, 0, -1703914, -1073741823, 0, -1703913, 21, 0, -1703912, -1073741801, 0, -1703904, 23, 0, -1703903, -1610612715, 0, -1703902, -1073741823, 0, -1703901, 1, 0, -1703900, 1, 0, -1703899, 1, 0, -1703898, 1, 0, -1703897, 1, 0, -1703896, 1, 0, -1703895, 1, 0, -1703894, 1, 0, -1703893, 1, 0, -1703892, -1073741799, 0, -1703888, -1610612711, 0, -1703887, 1, 0, -1703886, 1, 0, -1703885, 1, 0, -1703884, 21, 0, -1703883, 25, 0, -1703882, 25, 0, -1703881, 25, 0, -1703880, 25, 0, -1703879, 25, 0, -1638382, -1610612711, 0, -1638381, -1073741823, 0, -1638380, -1073741823, 0, -1638379, -1073741823, 0, -1638378, -1073741823, 0, -1638377, -1073741799, 0, -1638367, -1610612711, 0, -1638366, -1073741823, 0, -1638365, 1, 0, -1638364, 1, 0, -1638363, 1, 0, -1638362, 1, 0, -1638361, 1, 0, -1638360, 1, 0, -1638359, 1, 0, -1638358, 1, 0, -1638357, 1, 0, -1638356, -1073741799, 0, -1638352, -1610612711, 0, -1638351, 1, 0, -1638350, 1, 0, -1638349, 1, 0, -1638348, -1073741803, 0, -1638347, 1610612761, 0, -1638346, 1610612761, 0, -1638345, 1610612761, 0, -1638344, 1610612761, 0, -1638343, 1610612761, 0, -1638342, 1610612759, 0, -1572846, -1610612711, 0, -1572845, -1073741823, 0, -1572844, -1073741823, 0, -1572843, -1073741823, 0, -1572842, 21, 0, -1572841, -1073741801, 0, -1572831, 23, 0, -1572830, -1610612715, 0, -1572829, -1073741823, 0, -1572828, 1, 0, -1572827, 1, 0, -1572826, 1, 0, -1572825, 1, 0, -1572824, 1, 0, -1572823, 1, 0, -1572822, 1, 0, -1572821, 1, 0, -1572820, -1073741799, 0, -1572816, -1610612711, 0, -1572815, 1, 0, -1572814, 1, 0, -1572813, 1, 0, -1572812, 1, 0, -1572811, 1, 0, -1572810, 1, 0, -1572809, 1, 0, -1572808, 1, 0, -1572807, 1, 0, -1572806, -1073741799, 0, -1507310, -1610612711, 0, -1507309, -1073741823, 0, -1507308, -1073741823, 0, -1507307, -1073741823, 0, -1507306, -1073741799, 0, -1507294, -1610612711, 0, -1507293, -1073741823, 0, -1507292, 1, 0, -1507291, 1, 0, -1507290, 1, 0, -1507289, 1, 0, -1507288, 1, 0, -1507287, 1, 0, -1507286, 1, 0, -1507285, 1, 0, -1507284, -1073741799, 0, -1507280, -1610612711, 0, -1507279, 1, 0, -1507278, 1, 0, -1507277, 1, 0, -1507276, 1, 0, -1507275, 1, 0, -1507274, 1, 0, -1507273, 1, 0, -1507272, 1, 0, -1507271, 1, 0, -1507270, -1073741799, 0, -1441774, -1610612711, 0, -1441773, -1073741823, 0, -1441772, -1073741823, 0, -1441771, 21, 0, -1441770, -1073741801, 0, -1441758, 23, 0, -1441757, -1610612715, 0, -1441756, 1, 0, -1441755, 1, 0, -1441754, 1, 0, -1441753, 1, 0, -1441752, 1, 0, -1441751, 1, 0, -1441750, 1, 0, -1441749, 1, 0, -1441748, -1073741803, 0, -1441747, 1610612759, 0, -1441744, 23, 0, -1441743, 25, 0, -1441742, 25, 0, -1441741, -1610612715, 0, -1441740, 1, 0, -1441739, 1, 0, -1441738, 1, 0, -1441737, 1, 0, -1441736, 1, 0, -1441735, 1, 0, -1441734, -1073741799, 0, -1310742, 1610612751, 0, -1310741, -1073741808, 0, -1310740, -1073741808, 0, -1310739, -1073741808, 0, -1310738, -1073741808, 0, -1310737, -1073741808, 0, -1310736, -1073741808, 0, -1310735, -1073741808, 0, -1310734, -1073741808, 0, -1310733, -1073741808, 0, -1310732, -1073741808, 0, -1310731, -1073741808, 0, -1310730, -1073741808, 0, -1310729, -1073741808, 0, -1310728, -1073741808, 0, -1310727, -1073741808, 0, -1310726, -1073741808, 0, -1310725, -1073741808, 0, -1310724, -1073741808, 0, -1310723, -1073741808, 0, -1310722, -1073741808, 0, -1310721, -1073741808, 0, -1376256, -1073741808, 0, -1376255, -1073741808, 0, -1376254, -1073741808, 0, -1376253, -1073741808, 0, -1376252, -1073741808, 0, -1376251, -1073741808, 0, -1376250, -1073741808, 0, -1376249, -1073741809, 0, -1376238, -1610612711, 0, -1376237, -1073741823, 0, -1376236, -1073741823, 0, -1376235, -1073741799, 0, -1376221, -1610612711, 0, -1376220, 1, 0, -1376219, 1, 0, -1376218, 1, 0, -1376217, 1, 0, -1376216, 1, 0, -1376215, 1, 0, -1376214, 1, 0, -1376213, 1, 0, -1376212, 1, 0, -1376211, -1073741803, 0, -1376210, 1610612759, 0, -1376205, 23, 0, -1376204, -1610612715, 0, -1376203, 1, 0, -1376202, 1, 0, -1376201, 1, 0, -1376200, 1, 0, -1376199, 1, 0, -1376198, -1073741799, 0, -1245206, 1610612752, 0, -1245205, -1610612712, 0, -1245204, -1610612712, 0, -1245203, -1610612712, 0, -1245202, -1610612712, 0, -1245201, -1610612712, 0, -1245200, -1610612712, 0, -1245199, -1610612712, 0, -1245198, -1610612712, 0, -1245197, -1610612712, 0, -1245196, -1610612712, 0, -1245195, -1610612712, 0, -1245194, -1610612712, 0, -1245193, -1610612712, 0, -1245192, -1610612712, 0, -1245191, -1610612712, 0, -1245190, -1610612712, 0, -1245189, -1610612712, 0, -1245188, -1610612712, 0, -1245187, -1610612712, 0, -1245186, -1610612712, 0, -1245185, -1610612712, 0, -1310720, -1610612712, 0, -1310719, -1610612712, 0, -1310718, -1610612712, 0, -1310717, -1610612712, 0, -1310716, -1610612712, 0, -1310715, -1610612712, 0, -1310714, -1610612712, 0, -1310713, 17, 0, -1310702, -1610612711, 0, -1310701, -1073741823, 0, -1310700, -1073741823, 0, -1310699, -1073741799, 0, -1310685, -1610612711, 0, -1310684, 1, 0, -1310683, 1, 0, -1310682, 1, 0, -1310681, 1, 0, -1310680, 1, 0, -1310679, 1, 0, -1310678, 1, 0, -1310677, 1, 0, -1310676, 1, 0, -1310675, 1, 0, -1310674, -1073741803, 0, -1310673, 1610612759, 0, -1310668, -1610612711, 0, -1310667, 1, 0, -1310666, 1, 0, -1310665, 1, 0, -1310664, 1, 0, -1310663, 1, 0, -1310662, -1073741799, 0, -1179670, 1610612752, 0, -1179669, -1610612712, 0, -1179668, -1610612712, 0, -1179667, -1610612712, 0, -1179666, -1610612712, 0, -1179665, -1610612712, 0, -1179664, -1610612712, 0, -1179663, -1610612712, 0, -1179662, -1610612712, 0, -1179661, -1610612712, 0, -1179660, -1610612712, 0, -1179659, -1610612712, 0, -1179658, -1610612712, 0, -1179657, -1610612712, 0, -1179656, -1610612712, 0, -1179655, -1610612712, 0, -1179654, -1610612712, 0, -1179653, -1610612712, 0, -1179652, -1610612712, 0, -1179651, -1610612712, 0, -1179650, -1610612712, 0, -1179649, -1610612712, 0, -1245184, -1610612712, 0, -1245183, -1610612712, 0, -1245182, -1610612712, 0, -1245181, -1610612712, 0, -1245180, -1610612712, 0, -1245179, -1610612712, 0, -1245178, -1610612712, 0, -1245177, 16, 0, -1245166, -1610612711, 0, -1245165, -1073741823, 0, -1245164, -1073741823, 0, -1245163, -1073741799, 0, -1245149, -1610612711, 0, -1245148, 1, 0, -1245147, 1, 0, -1245146, 1, 0, -1245145, 1, 0, -1245144, 1, 0, -1245143, 1, 0, -1245142, 1, 0, -1245141, 1, 0, -1245140, 1, 0, -1245139, 1, 0, -1245138, 1, 0, -1245137, -1073741803, 0, -1245136, 1610612759, 0, -1245133, -1610612713, 0, -1245132, 1610612757, 0, -1245131, 1, 0, -1245130, 1, 0, -1245129, 1, 0, -1245128, 1, 0, -1245127, 1, 0, -1245126, -1073741799, 0, -1114134, 1610612752, 0, -1114133, -1610612712, 0, -1114132, -1610612712, 0, -1114131, -1610612712, 0, -1114130, -1610612712, 0, -1114129, -1610612712, 0, -1114128, -1610612712, 0, -1114127, -1610612712, 0, -1114126, -1610612712, 0, -1114125, -1610612712, 0, -1114124, -1610612712, 0, -1114123, -1610612712, 0, -1114122, -1610612712, 0, -1114121, -1610612712, 0, -1114120, -1610612712, 0, -1114119, -1610612712, 0, -1114118, -1610612712, 0, -1114117, -1610612712, 0, -1114116, -1610612712, 0, -1114115, -1610612712, 0, -1114114, -1610612712, 0, -1114113, -1610612712, 0, -1179648, -1610612712, 0, -1179647, -1610612712, 0, -1179646, -1610612712, 0, -1179645, -1610612712, 0, -1179644, -1610612712, 0, -1179643, -1610612712, 0, -1179642, -1610612712, 0, -1179641, -1073741810, 0, -1179635, -1610612713, 0, -1179634, 1610612761, 0, -1179633, 1610612761, 0, -1179632, 1610612761, 0, -1179631, 1610612761, 0, -1179630, 1610612757, 0, -1179629, -1073741823, 0, -1179628, -1073741823, 0, -1179627, -1073741799, 0, -1179613, -1610612711, 0, -1179612, 1, 0, -1179611, 1, 0, -1179610, 1, 0, -1179609, 1, 0, -1179608, 1, 0, -1179607, 1, 0, -1179606, 1, 0, -1179605, 1, 0, -1179604, 1, 0, -1179603, 1, 0, -1179602, 1, 0, -1179601, 1, 0, -1179600, -1073741803, 0, -1179599, 1610612761, 0, -1179598, 1610612761, 0, -1179597, 1610612757, 0, -1179596, 1, 0, -1179595, 1, 0, -1179594, 1, 0, -1179593, 1, 0, -1179592, 1, 0, -1179591, 1, 0, -1179590, -1073741799, 0, -1048598, 1610612752, 0, -1048597, -1610612712, 0, -1048596, -1610612712, 0, -1048595, -1610612712, 0, -1048594, -1610612712, 0, -1048593, -1610612712, 0, -1048592, -1610612712, 0, -1048591, -1610612712, 0, -1048590, -1610612712, 0, -1048589, -1610612712, 0, -1048588, -1610612712, 0, -1048587, -1610612712, 0, -1048586, -1610612712, 0, -1048585, -1610612712, 0, -1048584, -1610612713, 0, -1048583, 1610612761, 0, -1048582, 1610612761, 0, -1048581, 1610612761, 0, -1048580, 1610612761, 0, -1048579, 1610612761, 0, -1048577, 1610612761, 0, -1114112, 1610612761, 0, -1114111, 1610612761, 0, -1114110, 1610612761, 0, -1114109, 1610612759, 0, -1114108, -1610612712, 0, -1114107, -1610612712, 0, -1114106, -1610612712, 0, -1114105, 16, 0, -1114099, -1610612711, 0, -1114098, -1073741823, 0, -1114097, -1073741823, 0, -1114096, -1073741823, 0, -1114095, -1073741823, 0, -1114094, -1073741823, 0, -1114093, -1073741823, 0, -1114092, -1073741823, 0, -1114091, -1073741799, 0, -1114077, 23, 0, -1114076, -1610612715, 0, -1114075, 1, 0, -1114074, 1, 0, -1114073, 1, 0, -1114072, 1, 0, -1114071, 1, 0, -1114070, 1, 0, -1114069, 1, 0, -1114068, 1, 0, -1114067, 1, 0, -1114066, 1, 0, -1114065, 1, 0, -1114064, 1, 0, -1114063, 1, 0, -1114062, 1, 0, -1114061, 1, 0, -1114060, 1, 0, -1114059, 1, 0, -1114058, 1, 0, -1114057, 1, 0, -1114056, 1, 0, -1114055, 1, 0, -1114054, -1073741799, 0, -983062, 1610612752, 0, -983061, 24, 0, -983060, 24, 0, -983059, 24, 0, -983058, 24, 0, -983057, 24, 0, -983056, 24, 0, -983055, 24, 0, -983054, 24, 0, -983053, 24, 0, -983052, 24, 0, -983051, 24, 0, -983050, 24, 0, -983049, 24, 0, -983048, -1610612711, 0, -983047, -1073741823, 0, -983046, -1073741823, 0, -983045, -1073741823, 0, -983044, -1073741823, 0, -983043, -1073741823, 0, -983042, -1073741823, 0, -983041, -1073741823, 0, -1048576, -1073741823, 0, -1048575, -1073741823, 0, -1048574, -1073741823, 0, -1048573, -1073741799, 0, -1048572, -1610612712, 0, -1048571, -1610612712, 0, -1048570, -1610612712, 0, -1048569, 17, 0, -1048563, -1610612711, 0, -1048562, -1073741823, 0, -1048561, -1073741823, 0, -1048560, -1073741823, 0, -1048559, -1073741823, 0, -1048558, -1073741823, 0, -1048557, -1073741823, 0, -1048556, -1073741823, 0, -1048555, -1073741799, 0, -1048540, 23, 0, -1048539, -1610612715, 0, -1048538, 1, 0, -1048537, 1, 0, -1048536, 1, 0, -1048535, 1, 0, -1048534, 1, 0, -1048533, 1, 0, -1048532, 1, 0, -1048531, 1, 0, -1048530, 1, 0, -1048529, 1, 0, -1048528, 1, 0, -1048527, 1, 0, -1048526, 1, 0, -1048525, 1, 0, -1048524, 1, 0, -1048523, 1, 0, -1048522, 1, 0, -1048521, 1, 0, -1048520, 1, 0, -1048519, 1, 0, -1048518, -1073741799, 0, -917526, 1610612752, 0, -917525, 24, 0, -917524, 24, 0, -917523, 24, 0, -917522, 24, 0, -917521, 24, 0, -917520, 24, 0, -917519, 24, 0, -917518, 24, 0, -917517, 24, 0, -917516, 24, 0, -917515, 24, 0, -917514, 24, 0, -917513, 24, 0, -917512, -1610612711, 0, -917511, -1073741823, 0, -917510, -1073741823, 0, -917509, -1073741823, 0, -917508, -1073741823, 0, -917507, -1073741823, 0, -917506, -1073741823, 0, -917505, -1073741823, 0, -983040, -1073741823, 0, -983039, -1073741823, 0, -983038, -1073741823, 0, -983037, -1073741799, 0, -983036, -1610612712, 0, -983035, -1610612712, 0, -983034, -1610612712, 0, -983033, 16, 0, -983027, -1610612711, 0, -983026, -1073741823, 0, -983025, -1073741823, 0, -983024, 21, 0, -983023, 25, 0, -983022, 25, 0, -983021, 25, 0, -983020, 25, 0, -983019, -1073741801, 0, -983003, 23, 0, -983002, -1610612715, 0, -983001, 1, 0, -983000, 1, 0, -982999, 1, 0, -982998, 1, 0, -982997, 1, 0, -982996, 1, 0, -982995, 1, 0, -982994, 1, 0, -982993, 1, 0, -982992, 1, 0, -982991, 1, 0, -982990, 1, 0, -982989, 1, 0, -982988, 1, 0, -982987, 1, 0, -982986, 1, 0, -982985, 1, 0, -982984, 1, 0, -982983, 1, 0, -982982, -1073741799, 0, -851990, -1610612722, 0, -851989, 24, 0, -851988, 24, 0, -851987, 24, 0, -851986, 24, 0, -851985, 24, 0, -851984, 24, 0, -851983, 24, 0, -851982, 24, 0, -851981, 24, 0, -851980, 24, 0, -851979, 24, 0, -851978, 24, 0, -851977, 24, 0, -851976, -1610612711, 0, -851975, -1073741823, 0, -851974, -1073741823, 0, -851973, -1073741823, 0, -851972, -1073741823, 0, -851971, -1073741823, 0, -851970, -1073741823, 0, -851969, -1073741823, 0, -917504, -1073741823, 0, -917503, -1073741823, 0, -917502, -1073741823, 0, -917501, -1073741799, 0, -917500, -1610612712, 0, -917499, -1610612712, 0, -917498, -1610612712, 0, -917497, 16, 0, -917491, -1610612711, 0, -917490, -1073741823, 0, -917489, -1073741823, 0, -917488, -1073741799, 0, -917466, 23, 0, -917465, -1610612715, 0, -917464, 1, 0, -917463, 1, 0, -917462, 1, 0, -917461, 1, 0, -917460, 1, 0, -917459, 1, 0, -917458, 1, 0, -917457, 1, 0, -917456, 1, 0, -917455, 1, 0, -917454, 1, 0, -917453, 1, 0, -917452, 1, 0, -917451, 1, 0, -917450, 1, 0, -917449, 1, 0, -917448, 1, 0, -917447, 1, 0, -917446, -1073741799, 0, -786454, 1610612752, 0, -786453, 24, 0, -786452, 24, 0, -786451, 24, 0, -786450, 24, 0, -786449, 24, 0, -786448, 24, 0, -786447, 24, 0, -786446, 24, 0, -786445, 24, 0, -786444, 24, 0, -786443, 24, 0, -786442, 24, 0, -786441, 24, 0, -786440, -1610612711, 0, -786439, -1073741823, 0, -786438, -1073741823, 0, -786437, -1073741823, 0, -786436, -1073741823, 0, -786435, -1073741823, 0, -786434, -1073741823, 0, -786433, -1073741823, 0, -851968, -1073741823, 0, -851967, -1073741823, 0, -851966, -1073741823, 0, -851965, -1073741799, 0, -851964, -1610612712, 0, -851963, -1610612712, 0, -851962, -1610612712, 0, -851961, 17, 0, -851955, -1610612711, 0, -851954, -1073741823, 0, -851953, -1073741823, 0, -851952, -1073741799, 0, -851929, 23, 0, -851928, -1610612715, 0, -851927, 1, 0, -851926, 1, 0, -851925, 1, 0, -851924, 1, 0, -851923, 1, 0, -851922, 1, 0, -851921, 1, 0, -851920, 1, 0, -851919, 1, 0, -851918, 1, 0, -851917, 1, 0, -851916, 1, 0, -851915, 1, 0, -851914, 1, 0, -851913, 1, 0, -851912, 1, 0, -851911, 1, 0, -851910, -1073741799, 0, -720918, 1610612752, 0, -720917, 24, 0, -720916, 24, 0, -720915, 24, 0, -720914, 24, 0, -720913, 24, 0, -720912, 24, 0, -720911, 24, 0, -720910, 24, 0, -720909, 24, 0, -720908, 24, 0, -720907, 24, 0, -720906, 24, 0, -720905, 24, 0, -720904, -1610612711, 0, -720903, -1073741823, 0, -720902, -1073741823, 0, -720901, -1073741823, 0, -720900, -1073741823, 0, -720899, -1073741823, 0, -720898, -1073741823, 0, -720897, -1073741823, 0, -786432, -1073741823, 0, -786431, -1073741823, 0, -786430, -1073741823, 0, -786429, -1073741799, 0, -786428, -1610612712, 0, -786427, -1610612712, 0, -786426, -1610612712, 0, -786425, 16, 0, -786419, -1610612711, 0, -786418, -1073741823, 0, -786417, -1073741823, 0, -786416, -1073741799, 0, -786392, 23, 0, -786391, -1610612715, 0, -786390, 1, 0, -786389, 1, 0, -786388, 1, 0, -786387, 1, 0, -786386, 1, 0, -786385, 1, 0, -786384, 1, 0, -786383, 1, 0, -786382, 1, 0, -786381, 1, 0, -786380, 1, 0, -786379, 1, 0, -786378, 1, 0, -786377, 1, 0, -786376, 1, 0, -786375, 1, 0, -786374, -1073741799, 0, -655382, 1610612752, 0, -655381, 24, 0, -655380, 24, 0, -655379, -1610612713, 0, -655378, 1610612761, 0, -655377, 1610612761, 0, -655376, 1610612761, 0, -655375, 1610612761, 0, -655374, 1610612761, 0, -655373, 1610612761, 0, -655372, 1610612761, 0, -655371, 1610612761, 0, -655370, 1610612761, 0, -655369, 1610612761, 0, -655368, 1610612757, 0, -655367, -1073741823, 0, -655366, -1073741823, 0, -655365, -1073741823, 0, -655364, -1073741823, 0, -655363, -1073741823, 0, -655362, 21, 0, -655361, 25, 0, -720896, 25, 0, -720895, 25, 0, -720894, 25, 0, -720893, -1073741801, 0, -720892, -1610612712, 0, -720891, -1610612712, 0, -720890, -1610612712, 0, -720889, 16, 0, -720883, -1610612711, 0, -720882, -1073741823, 0, -720881, -1073741823, 0, -720880, -1073741799, 0, -720855, 23, 0, -720854, 25, 0, -720853, 25, 0, -720852, 25, 0, -720851, 25, 0, -720850, 25, 0, -720849, 25, 0, -720848, 25, 0, -720847, 25, 0, -720846, 25, 0, -720845, 25, 0, -720844, 25, 0, -720843, 25, 0, -720842, 25, 0, -720841, 25, 0, -720840, 25, 0, -720839, 25, 0, -720838, -1073741801, 0, -589846, 1610612752, 0, -589845, 24, 0, -589844, 24, 0, -589843, -1610612711, 0, -589842, -1073741823, 0, -589841, -1073741823, 0, -589840, -1073741823, 0, -589839, -1073741823, 0, -589838, -1073741823, 0, -589837, -1073741823, 0, -589836, -1073741823, 0, -589835, -1073741823, 0, -589834, -1073741823, 0, -589833, -1073741823, 0, -589832, -1073741823, 0, -589831, -1073741823, 0, -589830, -1073741823, 0, -589829, -1073741823, 0, -589828, -1073741823, 0, -589827, -1073741823, 0, -589826, -1073741803, 0, -589825, 1610612761, 0, -655360, 1610612761, 0, -655359, 1610612761, 0, -655358, 1610612761, 0, -655357, 1610612759, 0, -655356, -1610612712, 0, -655355, -1610612712, 0, -655354, -1610612712, 0, -655353, 16, 0, -655347, -1610612711, 0, -655346, -1073741823, 0, -655345, -1073741823, 0, -655344, -1073741799, 0, -524310, -1610612722, 0, -524309, 24, 0, -524308, 24, 0, -524307, -1610612711, 0, -524306, -1073741823, 0, -524305, -1073741823, 0, -524304, -1073741823, 0, -524303, -1073741823, 0, -524302, -1073741823, 0, -524301, -1073741823, 0, -524300, -1073741823, 0, -524299, -1073741823, 0, -524298, -1073741823, 0, -524297, -1073741823, 0, -524296, -1073741823, 0, -524295, -1073741823, 0, -524294, -1073741823, 0, -524293, -1073741823, 0, -524292, -1073741823, 0, -524291, -1073741823, 0, -524290, -1073741823, 0, -524289, -1073741823, 0, -589824, -1073741823, 0, -589823, -1073741823, 0, -589822, -1073741823, 0, -589821, -1073741799, 0, -589820, -1610612712, 0, -589819, -1610612712, 0, -589818, -1610612712, 0, -589817, 16, 0, -589812, -1610612713, 0, -589811, 1610612757, 0, -589810, -1073741823, 0, -589809, -1073741823, 0, -589808, -1073741799, 0, -458774, -1610612722, 0, -458773, 24, 0, -458772, 24, 0, -458771, -1610612711, 0, -458770, -1073741823, 0, -458769, -1073741823, 0, -458768, -1073741823, 0, -458767, -1073741823, 0, -458766, -1073741823, 0, -458765, -1073741823, 0, -458764, -1073741823, 0, -458763, -1073741823, 0, -458762, -1073741823, 0, -458761, -1073741823, 0, -458760, -1073741823, 0, -458759, -1073741823, 0, -458758, -1073741823, 0, -458757, -1073741823, 0, -458756, -1073741823, 0, -458755, -1073741823, 0, -458754, -1073741823, 0, -458753, -1073741823, 0, -524288, -1073741823, 0, -524287, -1073741823, 0, -524286, -1073741823, 0, -524285, -1073741799, 0, -524284, -1610612712, 0, -524283, -1610612712, 0, -524282, -1610612712, 0, -524281, 16, 0, -524280, 1610612760, 0, -524279, 1610612760, 0, -524278, 1610612760, 0, -524277, -1610612713, 0, -524276, 1610612757, 0, -524275, -1073741823, 0, -524274, -1073741823, 0, -524273, -1073741823, 0, -524272, -1073741799, 0, -393238, 1610612752, 0, -393237, 24, 0, -393236, 24, 0, -393235, 23, 0, -393234, 25, 0, -393233, 25, 0, -393232, 25, 0, -393231, 25, 0, -393230, 25, 0, -393229, 25, 0, -393228, 25, 0, -393227, 25, 0, -393226, 25, 0, -393225, 25, 0, -393224, -1610612715, 0, -393223, -1073741823, 0, -393222, -1073741823, 0, -393221, -1073741823, 0, -393220, -1073741823, 0, -393219, -1073741823, 0, -393218, -1073741823, 0, -393217, -1073741823, 0, -458752, -1073741823, 0, -458751, -1073741823, 0, -458750, -1073741823, 0, -458749, -1073741803, 0, -458748, 1610612761, 0, -458747, 1610612761, 0, -458746, 1610612761, 0, -458745, 1610612761, 0, -458744, 1610612761, 0, -458743, 1610612761, 0, -458742, 1610612761, 0, -458741, 1610612757, 0, -458740, -1073741823, 0, -458739, -1073741823, 0, -458738, -1073741823, 0, -458737, -1073741823, 0, -458736, -1073741799, 0, -327702, 1610612752, 0, -327701, 24, 0, -327700, 24, 0, -327699, 24, 0, -327698, 24, 0, -327697, 24, 0, -327696, 24, 0, -327695, 24, 0, -327694, 24, 0, -327693, 24, 0, -327692, 24, 0, -327691, 24, 0, -327690, 24, 0, -327689, 24, 0, -327688, -1610612711, 0, -327687, -1073741823, 0, -327686, -1073741823, 0, -327685, -1073741823, 0, -327684, -1073741823, 0, -327683, -1073741823, 0, -327682, -1073741823, 0, -327681, -1073741823, 0, -393216, -1073741823, 0, -393215, -1073741823, 0, -393214, -1073741823, 0, -393213, -1073741823, 0, -393212, -1073741823, 0, -393211, -1073741823, 0, -393210, -1073741823, 0, -393209, -1073741823, 0, -393208, -1073741823, 0, -393207, -1073741823, 0, -393206, -1073741823, 0, -393205, -1073741823, 0, -393204, -1073741823, 0, -393203, -1073741823, 0, -393202, -1073741823, 0, -393201, -1073741823, 0, -393200, -1073741799, 0, -262166, 1610612752, 0, -262165, 24, 0, -262164, 24, 0, -262163, 24, 0, -262162, 24, 0, -262161, 24, 0, -262160, 24, 0, -262159, 24, 0, -262158, 24, 0, -262157, 24, 0, -262156, 24, 0, -262155, 24, 0, -262154, 24, 0, -262153, 24, 0, -262152, -1610612711, 0, -262151, -1073741823, 0, -262150, -1073741823, 0, -262149, -1073741823, 0, -262148, -1073741823, 0, -262147, -1073741823, 0, -262146, -1073741823, 0, -262145, -1073741823, 0, -327680, -1073741823, 0, -327679, -1073741823, 0, -327678, -1073741823, 0, -327677, -1073741823, 0, -327676, -1073741823, 0, -327675, -1073741823, 0, -327674, -1073741823, 0, -327673, -1073741823, 0, -327672, -1073741823, 0, -327671, -1073741823, 0, -327670, -1073741823, 0, -327669, -1073741823, 0, -327668, -1073741823, 0, -327667, -1073741823, 0, -327666, -1073741823, 0, -327665, -1073741823, 0, -327664, -1073741799, 0, -196630, 1610612752, 0, -196629, 24, 0, -196628, 24, 0, -196627, 24, 0, -196626, 24, 0, -196625, 24, 0, -196624, 24, 0, -196623, 24, 0, -196622, 24, 0, -196621, 24, 0, -196620, 24, 0, -196619, 24, 0, -196618, 24, 0, -196617, 24, 0, -196616, -1610612711, 0, -196615, -1073741823, 0, -196614, -1073741823, 0, -196613, -1073741823, 0, -196612, -1073741823, 0, -196611, -1073741823, 0, -196610, -1073741823, 0, -196609, -1073741823, 0, -262144, -1073741823, 0, -262143, -1073741823, 0, -262142, -1073741823, 0, -262141, 21, 0, -262140, 25, 0, -262139, 25, 0, -262138, 25, 0, -262137, 25, 0, -262136, 25, 0, -262135, 25, 0, -262134, 25, 0, -262133, 25, 0, -262132, 25, 0, -262131, 25, 0, -262130, 25, 0, -262129, 25, 0, -262128, -1073741801, 0, -131094, 1610612752, 0, -131093, 24, 0, -131092, 24, 0, -131091, 24, 0, -131090, 24, 0, -131089, 24, 0, -131088, 24, 0, -131087, 24, 0, -131086, 24, 0, -131085, 24, 0, -131084, 24, 0, -131083, 24, 0, -131082, 24, 0, -131081, 24, 0, -131080, -1610612711, 0, -131079, -1073741823, 0, -131078, -1073741823, 0, -131077, -1073741823, 0, -131076, -1073741823, 0, -131075, -1073741823, 0, -131074, -1073741823, 0, -131073, -1073741823, 0, -196608, -1073741823, 0, -196607, -1073741823, 0, -196606, -1073741823, 0, -196605, -1073741799, 0, -196604, -1610612712, 0, -196603, -1610612712, 0, -196602, -1610612712, 0, -196601, 16, 0, -65558, 1610612752, 0, -65557, 24, 0, -65556, 24, 0, -65555, 24, 0, -65554, 24, 0, -65553, 24, 0, -65552, 24, 0, -65551, 24, 0, -65550, 24, 0, -65549, 24, 0, -65548, 24, 0, -65547, 24, 0, -65546, 24, 0, -65545, 24, 0, -65544, -1610612711, 0, -65543, 3, 0, -65542, -1610612734, 0, -65541, 536870916, 0, -65540, -2147483646, 0, -65539, 536870916, 0, -65538, -2147483646, 0, -65537, 536870916, 0, -131072, 536870915, 0, -131071, 1073741832, 0, -131070, -1073741823, 0, -131069, -1073741799, 0, -131068, -1610612712, 0, -131067, -1610612712, 0, -131066, -1610612712, 0, -131065, 16, 0, -22, -1610612721, 0, -21, -1610612720, 0, -20, -1610612720, 0, -19, -1610612720, 0, -18, -1610612720, 0, -17, -1610612720, 0, -16, -1610612720, 0, -15, -1610612719, 0, -14, -1610612720, 0, -13, -2147483632, 0, -12, -2147483632, 0, -11, -2147483632, 0, -10, 14, 0, -9, -2147483632, 0, -8, 536870925, 0, -65535, 13, 0, -65534, -1610612720, 0, -65533, -1610612720, 0, -65532, -1610612720, 0, -65531, -1610612719, 0, -65530, -1610612720, 0, -65529, -2147483633, 0 )

[node name="Door" parent="Level" instance=ExtResource( 5 )]
position = Vector2( -24, -264 )
world_scene = "res://scenes/world.tscn"

[node name="ECurrent" parent="Level" instance=ExtResource( 6 )]
pause_mode = 2
position = Vector2( -120, -138 )
rotation = 1.5708

[node name="FuelPickup" parent="Level" instance=ExtResource( 7 )]
position = Vector2( -264, -136 )

[node name="FuelPickup2" parent="Level" instance=ExtResource( 7 )]
position = Vector2( 24, -120 )

[node name="FuelPickup3" parent="Level" instance=ExtResource( 7 )]
position = Vector2( 548.692, -488.638 )

[node name="FuelPickup5" parent="Level" instance=ExtResource( 7 )]
position = Vector2( 587.045, -460.148 )

[node name="FuelPickup6" parent="Level" instance=ExtResource( 7 )]
position = Vector2( 612.248, -414.124 )

[node name="FuelPickup4" parent="Level" instance=ExtResource( 7 )]
position = Vector2( 320, -312 )

[node name="FuelPickup7" parent="Level" instance=ExtResource( 7 )]
position = Vector2( 904, -440 )

[node name="FuelPickup8" parent="Level" instance=ExtResource( 7 )]
position = Vector2( 872, -440 )

[node name="Boostrow" type="Node2D" parent="Level"]

[node name="BoostArea2D2" parent="Level/Boostrow" instance=ExtResource( 8 )]
position = Vector2( -216, -120 )

[node name="BoostArea2D3" parent="Level/Boostrow" instance=ExtResource( 8 )]
position = Vector2( -216, -152 )

[node name="BoostArea2D4" parent="Level/Boostrow" instance=ExtResource( 8 )]
position = Vector2( -216, -136 )

[node name="Turret" type="StaticBody2D" parent="Level"]
position = Vector2( -103.402, -72.258 )
script = ExtResource( 9 )

[node name="Arm" type="Sprite" parent="Level/Turret"]
position = Vector2( -6.74122, 0.0194092 )
texture = ExtResource( 11 )
offset = Vector2( 7.14904, -0.0194092 )

[node name="Position2D" type="Position2D" parent="Level/Turret/Arm"]
position = Vector2( 11.1022, 0 )

[node name="Body" type="Sprite" parent="Level/Turret"]
texture = ExtResource( 12 )

[node name="BodyCollision" type="CollisionShape2D" parent="Level/Turret"]
position = Vector2( -4.68987, 0 )
shape = SubResource( 1 )

[node name="DetectArea2D" type="Area2D" parent="Level/Turret"]
visible = false

[node name="DetectAreaCol" type="CollisionShape2D" parent="Level/Turret/DetectArea2D"]
scale = Vector2( 8, 8 )
shape = SubResource( 2 )

[node name="ScrollingBackground" type="ParallaxBackground" parent="."]
follow_viewport_enable = true
follow_viewport_scale = 1.2

[node name="BackgroundSprite" type="Sprite" parent="ScrollingBackground"]
position = Vector2( 4.67033, -1.02716 )
texture = ExtResource( 1 )
region_enabled = true
region_rect = Rect2( 0, 0, 999999, 99999 )

[node name="CanvasLayer" type="CanvasLayer" parent="."]
layer = 2

[node name="Pause" type="Control" parent="CanvasLayer"]
pause_mode = 2
visible = false
anchor_bottom = 1.0
script = ExtResource( 10 )
__meta__ = {
"_edit_use_anchors_": false
}

[node name="ColoredOverlay" type="ColorRect" parent="CanvasLayer/Pause"]
anchor_right = 1.0
anchor_bottom = 1.0
color = Color( 0.0588235, 0.152941, 0.219608, 0.47451 )

[node name="Buttons" type="Control" parent="CanvasLayer/Pause"]
margin_right = 40.0
margin_bottom = 40.0

[node name="RestartButton" type="Button" parent="CanvasLayer/Pause/Buttons"]
margin_right = 64.0
margin_bottom = 32.0
custom_fonts/font = ExtResource( 13 )
text = "Restart"

[node name="SettingsButton" type="Button" parent="CanvasLayer/Pause/Buttons"]
margin_right = 64.0
margin_bottom = 32.0
custom_fonts/font = ExtResource( 13 )
text = "Settings"
[connection signal="body_entered" from="Level/Turret/DetectArea2D" to="Level/Turret" method="_on_DetectArea2D_body_entered"]
[connection signal="body_exited" from="Level/Turret/DetectArea2D" to="Level/Turret" method="_on_DetectArea2D_body_exited"]
[connection signal="pressed" from="CanvasLayer/Pause/Buttons/RestartButton" to="CanvasLayer/Pause" method="_on_RestartButton_pressed"]
