[gd_scene load_steps=5 format=2]

[ext_resource path="res://assets/item/grappling_hook/line_part.png" type="Texture" id=1]
[ext_resource path="res://assets/item/grappling_hook/tip.png" type="Texture" id=2]
[ext_resource path="res://scenes/item/grappling_hook/chain.gd" type="Script" id=3]

[sub_resource type="RectangleShape2D" id=1]
extents = Vector2( 2.9179, 5.96973 )

[node name="GrapplingHook" type="Node2D"]
script = ExtResource( 3 )

[node name="Links" type="Sprite" parent="."]
position = Vector2( 0.112572, 134.037 )
texture = ExtResource( 1 )
region_enabled = true
region_rect = Rect2( 0, 0, 4, 256 )

[node name="Tip" type="KinematicBody2D" parent="."]
position = Vector2( 0.112572, 2.06382 )

[node name="Hook" type="Sprite" parent="Tip"]
texture = ExtResource( 2 )

[node name="CollisionShape2D" type="CollisionShape2D" parent="Tip"]
position = Vector2( 0.0375252, 2.00726 )
shape = SubResource( 1 )
